microc.vcd
$date
	Fri Dec  2 10:39:56 2022
$end
$version
	Icarus Verilog
$end
$timescale
	10ps
$end
$scope module microc_tb $end
$var wire 1 ! zero $end
$var wire 1 " carry $end
$var wire 6 # Opcode [5:0] $end
$var reg 3 $ ALUOp [2:0] $end
$var reg 1 % clk $end
$var reg 1 & reset $end
$var reg 1 ' s_inc $end
$var reg 1 ( s_inm $end
$var reg 1 ) s_skip $end
$var reg 1 * we $end
$var integer 32 + contador [31:0] $end
$scope module microc1 $end
$var wire 3 , ALUOp [2:0] $end
$var wire 1 % clk $end
$var wire 1 & reset $end
$var wire 1 ' s_inc $end
$var wire 1 ( s_inm $end
$var wire 1 ) s_skip $end
$var wire 1 * we $end
$var wire 1 ! zero $end
$var wire 10 - salida_mux_skip [9:0] $end
$var wire 10 . salida_mux_inc [9:0] $end
$var wire 8 / salida_alu [7:0] $end
$var wire 10 0 offset [9:0] $end
$var wire 10 1 new_pc [9:0] $end
$var wire 16 2 instruccion [15:0] $end
$var wire 10 3 current_pc [9:0] $end
$var wire 1 " carry $end
$var wire 8 4 WD3 [7:0] $end
$var wire 4 5 WA3 [3:0] $end
$var wire 8 6 RD2 [7:0] $end
$var wire 8 7 RD1 [7:0] $end
$var wire 4 8 RA2 [3:0] $end
$var wire 4 9 RA1 [3:0] $end
$var wire 6 : Opcode [5:0] $end
$var wire 8 ; Inm [7:0] $end
$scope module aluA $end
$var wire 3 < Op [2:0] $end
$var wire 8 = B [7:0] $end
$var wire 8 > A [7:0] $end
$var reg 8 ? S [7:0] $end
$var reg 1 " carry $end
$var reg 1 ! zero $end
$upscope $end
$scope module banco_registros $end
$var wire 4 @ RA1 [3:0] $end
$var wire 4 A RA2 [3:0] $end
$var wire 4 B WA3 [3:0] $end
$var wire 1 % clk $end
$var wire 1 * we3 $end
$var wire 8 C WD3 [7:0] $end
$var wire 8 D RD2 [7:0] $end
$var wire 8 E RD1 [7:0] $end
$upscope $end
$scope module memoria_programa $end
$var wire 16 F Datum [15:0] $end
$var wire 1 % clk $end
$var wire 10 G Address [9:0] $end
$upscope $end
$scope module mux_inc $end
$var wire 10 H D0 [9:0] $end
$var wire 1 ' s $end
$var wire 10 I Y [9:0] $end
$var wire 10 J D1 [9:0] $end
$upscope $end
$scope module mux_inm $end
$var wire 8 K D0 [7:0] $end
$var wire 8 L D1 [7:0] $end
$var wire 1 ( s $end
$var wire 8 M Y [7:0] $end
$upscope $end
$scope module mux_skip $end
$var wire 10 N D0 [9:0] $end
$var wire 10 O D1 [9:0] $end
$var wire 1 ) s $end
$var wire 10 P Y [9:0] $end
$upscope $end
$scope module pc $end
$var wire 1 % clk $end
$var wire 1 & reset $end
$var wire 10 Q D [9:0] $end
$var reg 10 R Q [9:0] $end
$upscope $end
$scope module sumador $end
$var wire 10 S A [9:0] $end
$var wire 10 T B [9:0] $end
$var wire 10 U Y [9:0] $end
$upscope $end
$upscope $end
$upscope $end
$enddefinitions $end
#0
$dumpvars
bx U
b0xx0xxx T
b0 S
b0 R
bx Q
b0xx P
b10 O
b1 N
bx M
b11 L
bx K
b0xx J
b0xx0xxx I
b110100 H
b0 G
b110100 F
b0 E
b0 D
bx C
b100 B
b11 A
b0 @
bx ?
b0 >
b0 =
bx <
b11 ;
b0 :
b0 9
b11 8
b0 7
b0 6
b100 5
bx 4
b0 3
b110100 2
bx 1
b110100 0
bx /
b0xx0xxx .
b0xx -
bx ,
bx +
x*
x)
x(
x'
1&
1%
bx $
b0 #
x"
x!
$end
#500
0&
#1000
1!
b0 /
b0 ?
b0 K
b1 1
b1 Q
b1 U
b1 .
b1 I
b1 T
b1 -
b1 J
b1 P
b11 4
b11 C
b11 M
b0 +
b0 $
b0 ,
b0 <
1*
1'
0)
1(
0%
#2000
b10 4
b10 C
b10 M
b10 ;
b10 L
b100001 0
b100001 H
b1 5
b1 B
b10 8
b10 A
b10 1
b10 Q
b10 U
b100001 2
b100001 F
b1 3
b1 G
b1 R
b1 S
1%
#3000
b1 +
0%
#4000
b111 4
b111 C
b111 M
b111 ;
b111 L
b1110111 0
b1110111 H
b111 5
b111 B
b111 8
b111 A
b11 1
b11 Q
b11 U
b1110111 2
b1110111 F
b10 3
b10 G
b10 R
b10 S
1%
#5000
0%
#6000
0!
b11 /
b11 ?
b11 K
b1000111 4
b1000111 C
b1000111 M
b11 7
b11 >
b11 E
b111 6
b111 =
b111 D
b101 #
b101 :
b1000111 ;
b1000111 L
b1110001 0
b1110001 H
b1 5
b1 B
b100 9
b100 @
b100 1
b100 Q
b100 U
b1010001110001 2
b1010001110001 F
b11 3
b11 G
b11 R
b11 S
1%
#7000
b101 1
b101 Q
b101 U
b10 .
b10 I
b10 T
1"
b11111100 /
b11111100 ?
b11111100 K
b10 -
b10 J
b10 P
b11111100 4
b11111100 C
b11111100 M
b10 +
b11 $
b11 ,
b11 <
0*
1)
0(
0%
#8000
b100 4
b100 C
b100 M
0"
b100 /
b100 ?
b100 K
b11 6
b11 =
b11 D
b111 7
b111 >
b111 E
b1101 #
b1101 :
b1110100 ;
b1110100 L
b1101000001 0
b1101000001 H
b100 8
b100 A
b111 9
b111 @
b111 1
b111 Q
b111 U
b11011101000001 2
b11011101000001 F
b101 3
b101 G
b101 R
b101 S
1%
#9000
b11 +
0%
#10000
b1 4
b1 C
b1 M
b1 /
b1 ?
b1 K
b10 6
b10 =
b10 D
b11 7
b11 >
b11 E
b10101 #
b10101 :
b1000001 ;
b1000001 L
b10100 0
b10100 H
b100 5
b100 B
b1 8
b1 A
b100 9
b100 @
b1001 1
b1001 Q
b1001 U
b101010000010100 2
b101010000010100 F
b111 3
b111 G
b111 R
b111 S
1%
#11000
b101 4
b101 C
b101 M
b1000 1
b1000 Q
b1000 U
b1 .
b1 I
b1 T
b101 /
b101 ?
b101 K
b1 -
b1 J
b1 P
b100 +
b10 $
b10 ,
b10 <
1*
0)
0%
#12000
b0 4
b0 C
b0 M
1!
b0 /
b0 ?
b0 K
b0 6
b0 =
b0 D
b0 7
b0 >
b0 E
b1000 #
b1000 :
b111111 ;
b111111 L
b1111111011 0
b1111111011 H
b1011 5
b1011 B
b1111 8
b1111 A
b11 9
b11 @
b1001 1
b1001 Q
b1001 U
b10001111111011 2
b10001111111011 F
b1000 3
b1000 G
b1000 R
b1000 S
1%
#13000
b11 1
b11 Q
b11 U
b1111111011 .
b1111111011 I
b1111111011 T
b101 +
b0 $
b0 ,
b0 <
0*
0'
0%
#14000
b101 4
b101 C
b101 M
0!
b101 /
b101 ?
b101 K
b1110001 .
b1110001 I
b1110001 T
b111 6
b111 =
b111 D
b101 7
b101 >
b101 E
b101 #
b101 :
b1000111 ;
b1000111 L
b1110001 0
b1110001 H
b1 5
b1 B
b111 8
b111 A
b100 9
b100 @
b1110100 1
b1110100 Q
b1110100 U
b1010001110001 2
b1010001110001 F
b11 3
b11 G
b11 R
b11 S
1%
#15000
b11111110 4
b11111110 C
b11111110 M
1"
b11111110 /
b11111110 ?
b11111110 K
b101 1
b101 Q
b101 U
b10 .
b10 I
b10 T
b10 -
b10 J
b10 P
b110 +
b11 $
b11 ,
b11 <
1'
1)
0%
#16000
b10 4
b10 C
b10 M
0"
b10 /
b10 ?
b10 K
b101 6
b101 =
b101 D
b111 7
b111 >
b111 E
b1101 #
b1101 :
b1110100 ;
b1110100 L
b1101000001 0
b1101000001 H
b100 8
b100 A
b111 9
b111 @
b111 1
b111 Q
b111 U
b11011101000001 2
b11011101000001 F
b101 3
b101 G
b101 R
b101 S
1%
#17000
b111 +
0%
#18000
b11 4
b11 C
b11 M
b11 /
b11 ?
b11 K
b10 6
b10 =
b10 D
b101 7
b101 >
b101 E
b10101 #
b10101 :
b1000001 ;
b1000001 L
b10100 0
b10100 H
b100 5
b100 B
b1 8
b1 A
b100 9
b100 @
b1001 1
b1001 Q
b1001 U
b101010000010100 2
b101010000010100 F
b111 3
b111 G
b111 R
b111 S
1%
#19000
b111 4
b111 C
b111 M
b1000 1
b1000 Q
b1000 U
b1 .
b1 I
b1 T
b111 /
b111 ?
b111 K
b1 -
b1 J
b1 P
b1000 +
b10 $
b10 ,
b10 <
1*
0)
0%
#20000
b0 4
b0 C
b0 M
1!
b0 /
b0 ?
b0 K
b0 6
b0 =
b0 D
b0 7
b0 >
b0 E
b1000 #
b1000 :
b111111 ;
b111111 L
b1111111011 0
b1111111011 H
b1011 5
b1011 B
b1111 8
b1111 A
b11 9
b11 @
b1001 1
b1001 Q
b1001 U
b10001111111011 2
b10001111111011 F
b1000 3
b1000 G
b1000 R
b1000 S
1%
#21000
b11 1
b11 Q
b11 U
b1111111011 .
b1111111011 I
b1111111011 T
b1001 +
b0 $
b0 ,
b0 <
0*
0'
0%
#22000
b111 4
b111 C
b111 M
0!
b111 /
b111 ?
b111 K
b1110001 .
b1110001 I
b1110001 T
b111 6
b111 =
b111 D
b111 7
b111 >
b111 E
b101 #
b101 :
b1000111 ;
b1000111 L
b1110001 0
b1110001 H
b1 5
b1 B
b111 8
b111 A
b100 9
b100 @
b1110100 1
b1110100 Q
b1110100 U
b1010001110001 2
b1010001110001 F
b11 3
b11 G
b11 R
b11 S
1%
#23000
b0 4
b0 C
b0 M
1!
b0 /
b0 ?
b0 K
b100 1
b100 Q
b100 U
b1 .
b1 I
b1 T
b1010 +
b11 $
b11 ,
b11 <
1'
0%
#24000
b0 6
b0 =
b0 D
b0 7
b0 >
b0 E
b1000 #
b1000 :
b0 ;
b0 L
b101 0
b101 H
b101 5
b101 B
b0 8
b0 A
b0 9
b0 @
b101 1
b101 Q
b101 U
b10000000000101 2
b10000000000101 F
b100 3
b100 G
b100 R
b100 S
1%
#25000
b1001 1
b1001 Q
b1001 U
b101 .
b101 I
b101 T
b1011 +
b0 $
b0 ,
b0 <
0'
0%
#26000
b0 .
b0 I
b0 T
b0 0
b0 H
b0 5
b0 B
b1001 1
b1001 Q
b1001 U
b10000000000000 2
b10000000000000 F
b1001 3
b1001 G
b1001 R
b1001 S
1%
#27000
b1100 +
0%
